<?xml version="1.0" encoding="UTF-8" standalone="no"?>
<!-- Created with Inkscape (http://www.inkscape.org/) -->

<svg
   xmlns:dc="http://purl.org/dc/elements/1.1/"
   xmlns:cc="http://creativecommons.org/ns#"
   xmlns:rdf="http://www.w3.org/1999/02/22-rdf-syntax-ns#"
   xmlns:svg="http://www.w3.org/2000/svg"
   xmlns="http://www.w3.org/2000/svg"
   xmlns:sodipodi="http://sodipodi.sourceforge.net/DTD/sodipodi-0.dtd"
   xmlns:inkscape="http://www.inkscape.org/namespaces/inkscape"
   width="272.30002mm"
   height="41.805553mm"
   viewBox="0 0 272.30002 41.805553"
   version="1.1"
   id="svg2014"
   inkscape:version="0.92.4 (5da689c313, 2019-01-14)"
   sodipodi:docname="deployment-design-tools.svg">
  <defs
     id="defs2008">
    <clipPath
       id="clip12">
      <rect
         x="0"
         y="0"
         width="247650"
         height="419100"
         id="rect1038" />
    </clipPath>
    <clipPath
       id="clip14">
      <rect
         x="0"
         y="0"
         width="213916"
         height="419100"
         id="rect1042" />
    </clipPath>
    <linearGradient
       gradientTransform="matrix(0.26458333,0,0,0.26458333,-215.67636,94.877235)"
       x1="965"
       y1="213.5"
       x2="1018"
       y2="213.5"
       gradientUnits="userSpaceOnUse"
       spreadMethod="reflect"
       id="fill10">
      <stop
         offset="0"
         stop-color="#1951A0"
         id="stop868" />
      <stop
         offset="0.0126582"
         stop-color="#18529F"
         id="stop870" />
      <stop
         offset="0.0253165"
         stop-color="#18549F"
         id="stop872" />
      <stop
         offset="0.0379747"
         stop-color="#18569F"
         id="stop874" />
      <stop
         offset="0.0506329"
         stop-color="#18589F"
         id="stop876" />
      <stop
         offset="0.0632911"
         stop-color="#185A9F"
         id="stop878" />
      <stop
         offset="0.0759494"
         stop-color="#185C9F"
         id="stop880" />
      <stop
         offset="0.0886076"
         stop-color="#185D9F"
         id="stop882" />
      <stop
         offset="0.101266"
         stop-color="#185F9F"
         id="stop884" />
      <stop
         offset="0.113924"
         stop-color="#18619F"
         id="stop886" />
      <stop
         offset="0.126582"
         stop-color="#18629F"
         id="stop888" />
      <stop
         offset="0.139241"
         stop-color="#18649F"
         id="stop890" />
      <stop
         offset="0.151899"
         stop-color="#18669F"
         id="stop892" />
      <stop
         offset="0.164557"
         stop-color="#18679F"
         id="stop894" />
      <stop
         offset="0.177215"
         stop-color="#18699F"
         id="stop896" />
      <stop
         offset="0.189873"
         stop-color="#176B9F"
         id="stop898" />
      <stop
         offset="0.202532"
         stop-color="#176C9F"
         id="stop900" />
      <stop
         offset="0.21519"
         stop-color="#176E9F"
         id="stop902" />
      <stop
         offset="0.227848"
         stop-color="#176F9F"
         id="stop904" />
      <stop
         offset="0.240506"
         stop-color="#17719F"
         id="stop906" />
      <stop
         offset="0.253165"
         stop-color="#17729F"
         id="stop908" />
      <stop
         offset="0.265823"
         stop-color="#16749F"
         id="stop910" />
      <stop
         offset="0.278481"
         stop-color="#16759F"
         id="stop912" />
      <stop
         offset="0.291139"
         stop-color="#16779F"
         id="stop914" />
      <stop
         offset="0.303797"
         stop-color="#16789F"
         id="stop916" />
      <stop
         offset="0.316456"
         stop-color="#16799F"
         id="stop918" />
      <stop
         offset="0.329114"
         stop-color="#157B9F"
         id="stop920" />
      <stop
         offset="0.341772"
         stop-color="#157C9F"
         id="stop922" />
      <stop
         offset="0.35443"
         stop-color="#157D9F"
         id="stop924" />
      <stop
         offset="0.367089"
         stop-color="#157F9F"
         id="stop926" />
      <stop
         offset="0.379747"
         stop-color="#14809F"
         id="stop928" />
      <stop
         offset="0.392405"
         stop-color="#14819E"
         id="stop930" />
      <stop
         offset="0.405063"
         stop-color="#14829E"
         id="stop932" />
      <stop
         offset="0.417722"
         stop-color="#14839E"
         id="stop934" />
      <stop
         offset="0.43038"
         stop-color="#13859E"
         id="stop936" />
      <stop
         offset="0.443038"
         stop-color="#13869E"
         id="stop938" />
      <stop
         offset="0.455696"
         stop-color="#13879E"
         id="stop940" />
      <stop
         offset="0.468354"
         stop-color="#12889E"
         id="stop942" />
      <stop
         offset="0.481013"
         stop-color="#12899E"
         id="stop944" />
      <stop
         offset="0.493671"
         stop-color="#128A9E"
         id="stop946" />
      <stop
         offset="0.506329"
         stop-color="#128B9E"
         id="stop948" />
      <stop
         offset="0.518987"
         stop-color="#118C9E"
         id="stop950" />
      <stop
         offset="0.531646"
         stop-color="#118D9E"
         id="stop952" />
      <stop
         offset="0.544304"
         stop-color="#118E9E"
         id="stop954" />
      <stop
         offset="0.556962"
         stop-color="#108F9D"
         id="stop956" />
      <stop
         offset="0.56962"
         stop-color="#10909D"
         id="stop958" />
      <stop
         offset="0.582278"
         stop-color="#0F919D"
         id="stop960" />
      <stop
         offset="0.594937"
         stop-color="#0F929D"
         id="stop962" />
      <stop
         offset="0.607595"
         stop-color="#0F939D"
         id="stop964" />
      <stop
         offset="0.620253"
         stop-color="#0E939D"
         id="stop966" />
      <stop
         offset="0.632911"
         stop-color="#0E949D"
         id="stop968" />
      <stop
         offset="0.64557"
         stop-color="#0D959D"
         id="stop970" />
      <stop
         offset="0.658228"
         stop-color="#0D969D"
         id="stop972" />
      <stop
         offset="0.670886"
         stop-color="#0D979D"
         id="stop974" />
      <stop
         offset="0.683544"
         stop-color="#0C979D"
         id="stop976" />
      <stop
         offset="0.696203"
         stop-color="#0C989C"
         id="stop978" />
      <stop
         offset="0.708861"
         stop-color="#0B999C"
         id="stop980" />
      <stop
         offset="0.721519"
         stop-color="#0B999C"
         id="stop982" />
      <stop
         offset="0.734177"
         stop-color="#0A9A9C"
         id="stop984" />
      <stop
         offset="0.746835"
         stop-color="#0A9A9C"
         id="stop986" />
      <stop
         offset="0.759494"
         stop-color="#0A9B9C"
         id="stop988" />
      <stop
         offset="0.772152"
         stop-color="#099C9C"
         id="stop990" />
      <stop
         offset="0.78481"
         stop-color="#099C9C"
         id="stop992" />
      <stop
         offset="0.797468"
         stop-color="#089C9C"
         id="stop994" />
      <stop
         offset="0.810127"
         stop-color="#089D9B"
         id="stop996" />
      <stop
         offset="0.822785"
         stop-color="#079D9B"
         id="stop998" />
      <stop
         offset="0.835443"
         stop-color="#079E9B"
         id="stop1000" />
      <stop
         offset="0.848101"
         stop-color="#069E9B"
         id="stop1002" />
      <stop
         offset="0.860759"
         stop-color="#069F9B"
         id="stop1004" />
      <stop
         offset="0.873418"
         stop-color="#059F9B"
         id="stop1006" />
      <stop
         offset="0.886076"
         stop-color="#059F9B"
         id="stop1008" />
      <stop
         offset="0.898734"
         stop-color="#049F9B"
         id="stop1010" />
      <stop
         offset="0.911392"
         stop-color="#03A09A"
         id="stop1012" />
      <stop
         offset="0.924051"
         stop-color="#03A09A"
         id="stop1014" />
      <stop
         offset="0.936709"
         stop-color="#02A09A"
         id="stop1016" />
      <stop
         offset="0.949367"
         stop-color="#02A09A"
         id="stop1018" />
      <stop
         offset="0.962025"
         stop-color="#01A09A"
         id="stop1020" />
      <stop
         offset="0.974684"
         stop-color="#01A09A"
         id="stop1022" />
      <stop
         offset="0.987342"
         stop-color="#00A09A"
         id="stop1024" />
      <stop
         offset="1"
         stop-color="#00A19A"
         id="stop1026" />
    </linearGradient>
  </defs>
  <sodipodi:namedview
     id="base"
     pagecolor="#ffffff"
     bordercolor="#666666"
     borderopacity="1.0"
     inkscape:pageopacity="0.0"
     inkscape:pageshadow="2"
     inkscape:zoom="1.4"
     inkscape:cx="620.47935"
     inkscape:cy="104.46681"
     inkscape:document-units="mm"
     inkscape:current-layer="layer1"
     showgrid="false"
     showguides="true"
     inkscape:guide-bbox="true"
     inkscape:snap-text-baseline="true"
     inkscape:snap-midpoints="true"
     inkscape:snap-smooth-nodes="true"
     fit-margin-top="1"
     fit-margin-left="1"
     fit-margin-right="1"
     fit-margin-bottom="2"
     inkscape:window-width="1920"
     inkscape:window-height="1137"
     inkscape:window-x="-8"
     inkscape:window-y="-8"
     inkscape:window-maximized="1">
    <sodipodi:guide
       position="207.19862,40.452781"
       orientation="0,1"
       id="guide2822"
       inkscape:locked="false" />
    <sodipodi:guide
       position="207.19862,2.3527897"
       orientation="0,1"
       id="guide2824"
       inkscape:locked="false" />
  </sodipodi:namedview>
  <metadata
     id="metadata2011">
    <rdf:RDF>
      <cc:Work
         rdf:about="">
        <dc:format>image/svg+xml</dc:format>
        <dc:type
           rdf:resource="http://purl.org/dc/dcmitype/StillImage" />
        <dc:title></dc:title>
      </cc:Work>
    </rdf:RDF>
  </metadata>
  <g
     inkscape:label="Layer 1"
     inkscape:groupmode="layer"
     id="layer1"
     transform="translate(167.68435,-130.69842)">
    <path
       inkscape:connector-curvature="0"
       style="fill:url(#fill10);fill-rule:evenodd;stroke-width:0.26458332"
       d="m 39.646555,150.109 h 8.75269 v -1.25677 l 5.27023,2.51355 -5.27023,2.51354 v -1.25677 h -8.75269 z"
       id="path1852" />
    <rect
       style="fill:#00a19a;stroke:#00a19a;stroke-width:0.31189963;stroke-linejoin:round;stroke-miterlimit:10"
       x="53.546368"
       y="132.06038"
       width="49.913342"
       height="38.081623"
       stroke-miterlimit="10"
       id="rect1854" />
    <text
       y="140.65015"
       x="57.738766"
       style="font-style:normal;font-variant:normal;font-weight:bold;font-stretch:normal;font-size:5.0270834px;font-family:Corbel;-inkscape-font-specification:'Corbel Bold';fill:#ffffff;stroke-width:0.26458332"
       font-weight="700"
       font-size="19"
       id="text1864" />
    <text
       y="140.65015"
       x="57.738766"
       style="font-style:normal;font-variant:normal;font-weight:bold;font-stretch:normal;font-size:5.0270834px;font-family:Corbel;-inkscape-font-specification:'Corbel Bold';fill:#ffffff;stroke-width:0.26458332"
       font-weight="700"
       font-size="19"
       id="text2832" />
    <rect
       style="fill:#045bc4;fill-opacity:0.2;stroke:#045bc4;stroke-width:0.70555645;stroke-miterlimit:8"
       x="-166.33157"
       y="132.05119"
       width="205.84584"
       height="38.099998"
       stroke-miterlimit="8"
       id="rect1918" />
    <text
       y="138.26891"
       x="-88.583755"
       style="font-style:normal;font-variant:normal;font-weight:bold;font-stretch:normal;font-size:5.5562501px;font-family:Corbel;-inkscape-font-specification:'Corbel Bold';fill:#045bc4;stroke-width:0.26458332"
       font-weight="700"
       font-size="21"
       id="text1920">DEPLOYMENT DESIGN TOOLS</text>
    <path
       inkscape:connector-curvature="0"
       style="fill:#045bc4;fill-rule:evenodd;stroke:#033f87;stroke-width:0.52916664;stroke-miterlimit:8"
       d="m -162.49511,137.29867 c 0,-1.36366 1.10569,-2.46935 2.46936,-2.46935 h 32.8967 c 1.36367,0 2.46936,1.10569 2.46936,2.46935 v 9.87796 c 0,1.36366 -1.10569,2.46935 -2.46936,2.46935 h -32.8967 c -1.36367,0 -2.46936,-1.10569 -2.46936,-2.46935 z"
       stroke-miterlimit="8"
       id="path1922" />
    <text
       y="140.91473"
       x="-147.78931"
       style="font-style:normal;font-variant:normal;font-weight:bold;font-stretch:normal;font-size:5.0270834px;font-family:Corbel;-inkscape-font-specification:'Corbel Bold';fill:#ffffff;stroke-width:0.26458332"
       font-weight="700"
       font-size="19"
       id="text1926">Site <tspan
   x="-161.12959"
   y="146.20641"
   id="tspan1924"
   style="font-style:normal;font-variant:normal;font-weight:bold;font-stretch:normal;font-family:Corbel;-inkscape-font-specification:'Corbel Bold';stroke-width:0.26458332">Characterisation</tspan>
</text>
    <path
       inkscape:connector-curvature="0"
       style="fill:#045bc4;fill-rule:evenodd;stroke:#033f87;stroke-width:0.52916664;stroke-miterlimit:8"
       d="m -162.75969,155.02576 c 0,-1.36367 1.10569,-2.46936 2.46935,-2.46936 h 32.89671 c 1.36366,0 2.46936,1.10569 2.46936,2.46936 v 9.87795 c 0,1.36366 -1.1057,2.46936 -2.46936,2.46936 h -32.89671 c -1.36366,0 -2.46935,-1.1057 -2.46935,-2.46936 z"
       stroke-miterlimit="8"
       id="path1928" />
    <text
       y="158.64182"
       x="-152.86852"
       style="font-style:normal;font-variant:normal;font-weight:bold;font-stretch:normal;font-size:5.0270834px;font-family:Corbel;-inkscape-font-specification:'Corbel Bold';fill:#ffffff;stroke-width:0.26458332"
       font-weight="700"
       font-size="19"
       id="text1932">Machine <tspan
   x="-161.40219"
   y="163.93349"
   id="tspan1930"
   style="font-style:normal;font-variant:normal;font-weight:bold;font-stretch:normal;font-family:Corbel;-inkscape-font-specification:'Corbel Bold';stroke-width:0.26458332">Characterisation</tspan>
</text>
    <path
       inkscape:connector-curvature="0"
       style="fill:#045bc4;fill-rule:evenodd;stroke:#033f87;stroke-width:0.52916664;stroke-miterlimit:8"
       d="m -115.92844,144.79538 c 0,-1.55866 1.26365,-2.82231 2.82231,-2.82231 h 16.580379 c 1.558661,0 2.822311,1.26365 2.822311,2.82231 v 11.28871 c 0,1.55866 -1.26365,2.82231 -2.822311,2.82231 h -16.580379 c -1.55866,0 -2.82231,-1.26365 -2.82231,-2.82231 z"
       stroke-miterlimit="8"
       id="path1934" />
    <text
       y="148.85223"
       x="-112.37032"
       style="font-style:normal;font-variant:normal;font-weight:bold;font-stretch:normal;font-size:5.0270834px;font-family:Corbel;-inkscape-font-specification:'Corbel Bold';fill:#ffffff;stroke-width:0.26458332"
       font-weight="700"
       font-size="19"
       id="text1938">Energy <tspan
   x="-113.29636"
   y="154.14391"
   id="tspan1936"
   style="font-style:normal;font-variant:normal;font-weight:bold;font-stretch:normal;font-family:Corbel;-inkscape-font-specification:'Corbel Bold';stroke-width:0.26458332">Capture</tspan>
</text>
    <path
       inkscape:connector-curvature="0"
       style="fill:#045bc4;fill-rule:evenodd;stroke:#033f87;stroke-width:0.52916664;stroke-miterlimit:8"
       d="m -88.411774,144.79538 c 0,-1.55866 1.26365,-2.82231 2.822311,-2.82231 h 30.338708 c 1.55866,0 2.82231,1.26365 2.82231,2.82231 v 11.28871 c 0,1.55866 -1.26365,2.82231 -2.82231,2.82231 h -30.338708 c -1.558661,0 -2.822311,-1.26365 -2.822311,-2.82231 z"
       stroke-miterlimit="8"
       id="path1940" />
    <text
       y="148.85223"
       x="-78.074509"
       style="font-style:normal;font-variant:normal;font-weight:bold;font-stretch:normal;font-size:5.0270834px;font-family:Corbel;-inkscape-font-specification:'Corbel Bold';fill:#ffffff;stroke-width:0.26458332"
       font-weight="700"
       font-size="19"
       id="text1944">Energy <tspan
   x="-87.02449"
   y="154.14391"
   id="tspan1942"
   style="font-style:normal;font-variant:normal;font-weight:bold;font-stretch:normal;font-family:Corbel;-inkscape-font-specification:'Corbel Bold';stroke-width:0.26458332">Transformation</tspan>
</text>
    <path
       inkscape:connector-curvature="0"
       style="fill:#045bc4;fill-rule:evenodd;stroke:#033f87;stroke-width:0.52916664;stroke-miterlimit:8"
       d="m -47.136775,144.79538 c 0,-1.55866 1.26365,-2.82231 2.82231,-2.82231 h 16.3158 c 1.55866,0 2.82231,1.26365 2.82231,2.82231 v 11.28871 c 0,1.55866 -1.26365,2.82231 -2.82231,2.82231 h -16.3158 c -1.55866,0 -2.82231,-1.26365 -2.82231,-2.82231 z"
       stroke-miterlimit="8"
       id="path1946" />
    <text
       y="149.11682"
       x="-43.781322"
       style="font-style:normal;font-variant:normal;font-weight:bold;font-stretch:normal;font-size:5.0270834px;font-family:Corbel;-inkscape-font-specification:'Corbel Bold';fill:#ffffff;stroke-width:0.26458332"
       font-weight="700"
       font-size="19"
       id="text1950">Energy <tspan
   x="-45.037228"
   y="154.40848"
   id="tspan1948"
   style="font-style:normal;font-variant:normal;font-weight:bold;font-stretch:normal;font-family:Corbel;-inkscape-font-specification:'Corbel Bold';stroke-width:0.26458332">Delivery</tspan>
</text>
    <path
       inkscape:connector-curvature="0"
       style="fill:#045bc4;fill-rule:evenodd;stroke:#033f87;stroke-width:0.52916664;stroke-miterlimit:8"
       d="m -20.149275,144.79538 c 0,-1.55866 1.26365,-2.82231 2.82231,-2.82231 h 16.3157995 c 1.55866002,0 2.82231,1.26365 2.82231,2.82231 v 11.28871 c 0,1.55866 -1.26364998,2.82231 -2.82231,2.82231 H -17.326965 c -1.55866,0 -2.82231,-1.26365 -2.82231,-2.82231 z"
       stroke-miterlimit="8"
       id="path1952" />
    <text
       y="148.85223"
       x="-17.063435"
       style="font-style:normal;font-variant:normal;font-weight:bold;font-stretch:normal;font-size:5.0270834px;font-family:Corbel;-inkscape-font-specification:'Corbel Bold';fill:#ffffff;stroke-width:0.26458332"
       font-weight="700"
       font-size="19"
       id="text1956">Station <tspan
   x="-17.897755"
   y="154.14391"
   id="tspan1954"
   style="font-style:normal;font-variant:normal;font-weight:bold;font-stretch:normal;font-family:Corbel;-inkscape-font-specification:'Corbel Bold';stroke-width:0.26458332">Keeping</tspan>
</text>
    <path
       inkscape:connector-curvature="0"
       style="fill:#045bc4;fill-rule:evenodd;stroke:#033f87;stroke-width:0.52916664;stroke-miterlimit:8"
       d="m 7.3673945,144.79538 c 0,-1.55866 1.26365,-2.82231 2.8223105,-2.82231 h 22.40121 c 1.55866,0 2.82231,1.26365 2.82231,2.82231 v 11.28871 c 0,1.55866 -1.26365,2.82231 -2.82231,2.82231 h -22.40121 c -1.5586605,0 -2.8223105,-1.26365 -2.8223105,-2.82231 z"
       stroke-miterlimit="8"
       id="path1958" />
    <text
       y="146.20641"
       x="11.979351"
       style="font-style:normal;font-variant:normal;font-weight:bold;font-stretch:normal;font-size:5.0270834px;font-family:Corbel;-inkscape-font-specification:'Corbel Bold';fill:#ffffff;stroke-width:0.26458332"
       font-weight="700"
       font-size="19"
       id="text1964">Logistics <tspan
   x="11.714764"
   y="151.49806"
   id="tspan1960"
   style="font-style:normal;font-variant:normal;font-weight:bold;font-stretch:normal;font-family:Corbel;-inkscape-font-specification:'Corbel Bold';stroke-width:0.26458332">&amp; Marine</tspan>
<tspan
   x="9.4658012"
   y="157.05432"
   id="tspan1962"
   style="font-style:normal;font-variant:normal;font-weight:bold;font-stretch:normal;font-family:Corbel;-inkscape-font-specification:'Corbel Bold';stroke-width:0.26458332">Operations</tspan>
</text>
    <path
       inkscape:connector-curvature="0"
       style="fill:#022c5f;stroke-width:0.26458332"
       d="m -124.79198,160.58307 h 4.89688 v -10.01115 l -0.39688,0.39687 h 2.51561 v -0.79375 h -2.91248 v 10.01115 l 0.39687,-0.39687 h -4.5 z m 6.61873,-8.82053 2.38125,-1.19062 -2.38125,-1.19063 z"
       id="path1966" />
    <path
       inkscape:connector-curvature="0"
       style="fill:#022c5f;stroke-width:0.26458332"
       d="m -124.5274,141.97307 h 4.76065 v 8.51376 l -0.39688,-0.39688 h 2.37914 v 0.79375 h -2.77601 v -8.51376 l 0.39687,0.39688 h -4.36377 z m 6.34603,7.32313 2.38125,1.19063 -2.38125,1.19062 z"
       id="path1968" />
    <path
       inkscape:connector-curvature="0"
       style="fill:#022c5f;stroke-width:0.26458332"
       d="m -93.571149,150.17515 h 3.310467 v 0.79375 h -3.310467 z m 2.913592,-0.79375 2.38125,1.19063 -2.38125,1.19062 z"
       id="path1970" />
    <path
       inkscape:connector-curvature="0"
       style="fill:#022c5f;stroke-width:0.26458332"
       d="m -52.293765,150.17515 3.31073,0.0206 -0.005,0.79375 -3.31047,-0.0206 z m 2.91862,-0.77549 2.37384,1.20544 -2.38866,1.17554 z"
       id="path1972" />
    <path
       inkscape:connector-curvature="0"
       style="fill:#022c5f;stroke-width:0.26458332"
       d="m -25.041495,151.00197 3.1065,-0.0201 -0.005,-0.79374 -3.1065,0.0201 z m 2.71478,0.77619 2.37347,-1.20601 -2.3889,-1.17519 z"
       id="path1974" />
    <path
       inkscape:connector-curvature="0"
       style="fill:#022c5f;stroke-width:0.26458332"
       d="m 1.9440545,150.97763 3.51458,-0.006 -10e-4,-0.79375 -3.51458,0.005 z m 3.11895,0.78887 2.37937,-1.19435 -2.3831,-1.1869 z"
       id="path1976" />
    <flowRoot
       xml:space="preserve"
       id="flowRoot2845"
       style="font-style:normal;font-variant:normal;font-weight:normal;font-stretch:normal;font-size:12px;line-height:1.25;font-family:'Palatino Linotype';-inkscape-font-specification:'Palatino Linotype';letter-spacing:0px;word-spacing:0px;fill:#000000;fill-opacity:1;stroke:none"
       transform="scale(0.26458333)"><flowRegion
         id="flowRegion2847"><rect
           id="rect2849"
           width="152.53304"
           height="137.38075"
           x="217.1828"
           y="249.24281" /></flowRegion><flowPara
         id="flowPara2851"></flowPara></flowRoot>    <text
       xml:space="preserve"
       style="font-style:normal;font-variant:normal;font-weight:normal;font-stretch:normal;font-size:3.17499995px;line-height:1.25;font-family:'Palatino Linotype';-inkscape-font-specification:'Palatino Linotype';letter-spacing:0px;word-spacing:0px;fill:#fffffe;fill-opacity:1;stroke:none;stroke-width:0.26458332"
       x="56.277805"
       y="166.66283"
       id="text10662"><tspan
         sodipodi:role="line"
         x="56.277805"
         y="166.66283"
         id="tspan10660"
         style="stroke-width:0.26458332"><tspan
           x="56.277805"
           y="166.66283"
           style="font-style:normal;font-variant:normal;font-weight:normal;font-stretch:normal;font-size:5.0270834px;line-height:normal;font-family:Corbel;-inkscape-font-specification:'Corbel Bold';font-variant-ligatures:normal;font-variant-position:normal;font-variant-caps:normal;font-variant-numeric:normal;font-variant-alternates:normal;font-feature-settings:normal;text-indent:0;text-align:start;text-decoration:none;text-decoration-line:none;text-decoration-style:solid;text-decoration-color:#000000;letter-spacing:normal;word-spacing:normal;text-transform:none;writing-mode:lr-tb;direction:ltr;text-orientation:mixed;dominant-baseline:auto;baseline-shift:baseline;text-anchor:start;white-space:normal;shape-padding:0;opacity:1;vector-effect:none;fill:#ffffff;fill-opacity:1;stroke-width:0.26458332;stroke-linecap:butt;stroke-linejoin:miter;stroke-miterlimit:4;stroke-dasharray:none;stroke-dashoffset:0;stroke-opacity:1"
           id="tspan10658">Bill of materials</tspan></tspan></text>
    <flowRoot
       xml:space="preserve"
       id="flowRoot2878"
       style="font-style:normal;font-variant:normal;font-weight:normal;font-stretch:normal;font-size:12px;line-height:1.25;font-family:'Palatino Linotype';-inkscape-font-specification:'Palatino Linotype';letter-spacing:0px;word-spacing:0px;fill:#000000;fill-opacity:1;stroke:none"
       transform="scale(0.26458333)"><flowRegion
         id="flowRegion2880"><rect
           id="rect2882"
           width="35.355339"
           height="13.637059"
           x="230.31477"
           y="346.72253" /></flowRegion><flowPara
         id="flowPara2884"></flowPara></flowRoot>    <text
       xml:space="preserve"
       style="font-style:normal;font-variant:normal;font-weight:normal;font-stretch:normal;font-size:3.17499995px;line-height:1.25;font-family:'Palatino Linotype';-inkscape-font-specification:'Palatino Linotype';letter-spacing:0px;word-spacing:0px;fill:#fffffe;fill-opacity:1;stroke:none;stroke-width:0.26458332"
       x="56.277805"
       y="158.98767"
       id="text10668"><tspan
         sodipodi:role="line"
         x="56.277805"
         y="158.98767"
         id="tspan10666"
         style="stroke-width:0.26458332"><tspan
           x="56.277805"
           y="158.98767"
           style="font-style:normal;font-variant:normal;font-weight:normal;font-stretch:normal;font-size:5.0270834px;line-height:normal;font-family:Corbel;-inkscape-font-specification:'Corbel Bold';font-variant-ligatures:normal;font-variant-position:normal;font-variant-caps:normal;font-variant-numeric:normal;font-variant-alternates:normal;font-feature-settings:normal;text-indent:0;text-align:start;text-decoration:none;text-decoration-line:none;text-decoration-style:solid;text-decoration-color:#000000;letter-spacing:normal;word-spacing:normal;text-transform:none;writing-mode:lr-tb;direction:ltr;text-orientation:mixed;dominant-baseline:auto;baseline-shift:baseline;text-anchor:start;white-space:normal;shape-padding:0;opacity:1;vector-effect:none;fill:#ffffff;fill-opacity:1;stroke-width:0.26458332;stroke-linecap:butt;stroke-linejoin:miter;stroke-miterlimit:4;stroke-dasharray:none;stroke-dashoffset:0;stroke-opacity:1"
           id="tspan10664">Design of subsystems</tspan></tspan></text>
    <text
       xml:space="preserve"
       style="font-style:normal;font-variant:normal;font-weight:normal;font-stretch:normal;font-size:3.17499995px;line-height:1.25;font-family:'Palatino Linotype';-inkscape-font-specification:'Palatino Linotype';letter-spacing:0px;word-spacing:0px;fill:#fffffe;fill-opacity:1;stroke:none;stroke-width:0.26458332"
       x="56.527576"
       y="146.3895"
       id="text10656"><tspan
         sodipodi:role="line"
         x="56.527576"
         y="146.3895"
         id="tspan10648"
         style="stroke-width:0.26458332"><tspan
           x="56.527576"
           y="146.3895"
           style="font-style:normal;font-variant:normal;font-weight:normal;font-stretch:normal;font-size:5.0270834px;line-height:1;font-family:Corbel;-inkscape-font-specification:'Corbel Bold';font-variant-ligatures:normal;font-variant-position:normal;font-variant-caps:normal;font-variant-numeric:normal;font-variant-alternates:normal;font-feature-settings:normal;text-indent:0;text-align:start;text-decoration:none;text-decoration-line:none;text-decoration-style:solid;text-decoration-color:#000000;letter-spacing:normal;word-spacing:normal;text-transform:none;writing-mode:lr-tb;direction:ltr;text-orientation:mixed;dominant-baseline:auto;baseline-shift:baseline;text-anchor:start;white-space:normal;shape-padding:0;opacity:1;vector-effect:none;fill:#ffffff;fill-opacity:1;stroke-width:0.26458332;stroke-linecap:butt;stroke-linejoin:miter;stroke-miterlimit:4;stroke-dasharray:none;stroke-dashoffset:0;stroke-opacity:1"
           id="tspan10646">Array layout and </tspan></tspan><tspan
         sodipodi:role="line"
         x="56.527576"
         y="151.41658"
         id="tspan10654"
         style="stroke-width:0.26458332"><tspan
           x="56.527576"
           y="151.41658"
           style="font-style:normal;font-variant:normal;font-weight:normal;font-stretch:normal;font-size:5.0270834px;line-height:1;font-family:Corbel;-inkscape-font-specification:'Corbel Bold';font-variant-ligatures:normal;font-variant-position:normal;font-variant-caps:normal;font-variant-numeric:normal;font-variant-alternates:normal;font-feature-settings:normal;text-indent:0;text-align:start;text-decoration:none;text-decoration-line:none;text-decoration-style:solid;text-decoration-color:#000000;letter-spacing:normal;word-spacing:normal;text-transform:none;writing-mode:lr-tb;direction:ltr;text-orientation:mixed;dominant-baseline:auto;baseline-shift:baseline;text-anchor:start;white-space:normal;shape-padding:0;opacity:1;vector-effect:none;fill:#ffffff;fill-opacity:1;stroke-width:0.26458332;stroke-linecap:butt;stroke-linejoin:miter;stroke-miterlimit:4;stroke-dasharray:none;stroke-dashoffset:0;stroke-opacity:1"
           id="tspan10650">configurations</tspan><tspan
           dx="0"
           x="86.474068"
           y="151.41658"
           style="font-style:normal;font-variant:normal;font-weight:normal;font-stretch:normal;font-size:5.0270834px;line-height:1;font-family:Corbel;-inkscape-font-specification:'Corbel Bold';font-variant-ligatures:normal;font-variant-position:normal;font-variant-caps:normal;font-variant-numeric:normal;font-variant-alternates:normal;font-feature-settings:normal;text-indent:0;text-align:start;text-decoration:none;text-decoration-line:none;text-decoration-style:solid;text-decoration-color:#000000;letter-spacing:normal;word-spacing:normal;text-transform:none;writing-mode:lr-tb;direction:ltr;text-orientation:mixed;dominant-baseline:auto;baseline-shift:baseline;text-anchor:start;white-space:normal;shape-padding:0;opacity:1;vector-effect:none;fill:#ffffff;fill-opacity:1;stroke-width:0.26458332;stroke-linecap:butt;stroke-linejoin:miter;stroke-miterlimit:4;stroke-dasharray:none;stroke-dashoffset:0;stroke-opacity:1"
           id="tspan10652" /></tspan></text>
    <text
       xml:space="preserve"
       style="font-style:normal;font-variant:normal;font-weight:normal;font-stretch:normal;font-size:3.17499995px;line-height:1.25;font-family:'Palatino Linotype';-inkscape-font-specification:'Palatino Linotype';letter-spacing:0px;word-spacing:0px;fill:#fffffe;fill-opacity:1;stroke:none;stroke-width:0.26458332"
       x="56.214073"
       y="138.86679"
       id="text10644"><tspan
         sodipodi:role="line"
         x="56.214073"
         y="138.86679"
         id="tspan10642"
         style="stroke-width:0.26458332"><tspan
           x="56.214073"
           y="138.86679"
           style="font-style:normal;font-variant:normal;font-weight:bold;font-stretch:normal;font-size:5.0270834px;line-height:normal;font-family:Corbel;-inkscape-font-specification:'Corbel Bold';font-variant-ligatures:normal;font-variant-position:normal;font-variant-caps:normal;font-variant-numeric:normal;font-variant-alternates:normal;font-feature-settings:normal;text-indent:0;text-align:start;text-decoration:none;text-decoration-line:none;text-decoration-style:solid;text-decoration-color:#000000;letter-spacing:normal;word-spacing:normal;text-transform:none;writing-mode:lr-tb;direction:ltr;text-orientation:mixed;dominant-baseline:auto;baseline-shift:baseline;text-anchor:start;white-space:normal;shape-padding:0;opacity:1;vector-effect:none;fill:#ffffff;fill-opacity:1;stroke-width:0.26458332;stroke-linecap:butt;stroke-linejoin:miter;stroke-miterlimit:4;stroke-dasharray:none;stroke-dashoffset:0;stroke-opacity:1"
           id="tspan10638">Main Results:</tspan><tspan
           dx="0"
           x="85.325989"
           y="138.86679"
           style="font-style:normal;font-variant:normal;font-weight:bold;font-stretch:normal;font-size:5.0270834px;line-height:normal;font-family:Corbel;-inkscape-font-specification:'Corbel Bold';font-variant-ligatures:normal;font-variant-position:normal;font-variant-caps:normal;font-variant-numeric:normal;font-variant-alternates:normal;font-feature-settings:normal;text-indent:0;text-align:start;text-decoration:none;text-decoration-line:none;text-decoration-style:solid;text-decoration-color:#000000;letter-spacing:normal;word-spacing:normal;text-transform:none;writing-mode:lr-tb;direction:ltr;text-orientation:mixed;dominant-baseline:auto;baseline-shift:baseline;text-anchor:start;white-space:normal;shape-padding:0;opacity:1;vector-effect:none;fill:#ffffff;fill-opacity:1;stroke-width:0.26458332;stroke-linecap:butt;stroke-linejoin:miter;stroke-miterlimit:4;stroke-dasharray:none;stroke-dashoffset:0;stroke-opacity:1"
           id="tspan10640" /></tspan></text>
  </g>
</svg>
