<?xml version="1.0" encoding="UTF-8" standalone="no"?>
<svg
   width="238.46231mm"
   height="54.916668mm"
   overflow="hidden"
   version="1.1"
   id="svg111"
   sodipodi:docname="forking.svg"
   inkscape:version="1.1 (c68e22c387, 2021-05-23)"
   xmlns:inkscape="http://www.inkscape.org/namespaces/inkscape"
   xmlns:sodipodi="http://sodipodi.sourceforge.net/DTD/sodipodi-0.dtd"
   xmlns="http://www.w3.org/2000/svg"
   xmlns:svg="http://www.w3.org/2000/svg">
  <sodipodi:namedview
     id="namedview113"
     pagecolor="#ffffff"
     bordercolor="#666666"
     borderopacity="1.0"
     inkscape:pageshadow="2"
     inkscape:pageopacity="0.0"
     inkscape:pagecheckerboard="0"
     showgrid="false"
     lock-margins="false"
     fit-margin-top="1"
     fit-margin-left="1"
     fit-margin-right="1"
     fit-margin-bottom="1"
     units="mm"
     inkscape:zoom="1.4142136"
     inkscape:cx="360.62446"
     inkscape:cy="152.02796"
     inkscape:window-width="1920"
     inkscape:window-height="1137"
     inkscape:window-x="-8"
     inkscape:window-y="-8"
     inkscape:window-maximized="1"
     inkscape:current-layer="g109"
     inkscape:document-units="mm" />
  <defs
     id="defs5">
    <clipPath
       id="clip0">
      <rect
         x="0"
         y="0"
         width="1280"
         height="720"
         id="rect2" />
    </clipPath>
  </defs>
  <g
     clip-path="url(#clip0)"
     id="g109"
     transform="translate(-192.50464,-146.22047)">
    <path
       d="m 201,160.333 c 0,-5.154 4.179,-9.333 9.333,-9.333 h 124.334 c 5.154,0 9.333,4.179 9.333,9.333 v 37.334 c 0,5.154 -4.179,9.333 -9.333,9.333 H 210.333 C 205.179,207 201,202.821 201,197.667 Z"
       stroke="#033f87"
       stroke-width="2"
       stroke-miterlimit="8"
       fill="#045bc4"
       fill-rule="evenodd"
       id="path9" />
    <text
       fill="#ffffff"
       font-family="Corbel, Corbel_MSFontService, sans-serif"
       font-weight="700"
       font-size="19px"
       transform="translate(256.581,174)"
       id="text13">Site <tspan
   font-size="19px"
   x="-50.419998"
   y="20"
   id="tspan11">Characterisation</tspan></text>
    <path
       d="m 200,227.333 c 0,-5.154 4.179,-9.333 9.333,-9.333 h 124.334 c 5.154,0 9.333,4.179 9.333,9.333 v 37.334 c 0,5.154 -4.179,9.333 -9.333,9.333 H 209.333 C 204.179,274 200,269.821 200,264.667 Z"
       stroke="#033f87"
       stroke-width="2"
       stroke-miterlimit="8"
       fill="#045bc4"
       fill-rule="evenodd"
       id="path15" />
    <text
       fill="#ffffff"
       font-family="Corbel, Corbel_MSFontService, sans-serif"
       font-weight="700"
       font-size="19px"
       transform="translate(237.384,241)"
       id="text19">Machine <tspan
   font-size="19px"
   x="-32.2533"
   y="20"
   id="tspan17">Characterisation</tspan></text>
    <path
       d="M 377,188.667 C 377,182.776 381.776,178 387.667,178 h 62.666 c 5.891,0 10.667,4.776 10.667,10.667 v 42.666 C 461,237.224 456.224,242 450.333,242 H 387.667 C 381.776,242 377,237.224 377,231.333 Z"
       stroke="#033f87"
       stroke-width="2"
       stroke-miterlimit="8"
       fill="#045bc4"
       fill-rule="evenodd"
       id="path21" />
    <text
       fill="#ffffff"
       font-family="Corbel, Corbel_MSFontService, sans-serif"
       font-weight="700"
       font-size="19px"
       transform="translate(390.448,204)"
       id="text25">Energy <tspan
   font-size="19px"
   x="-3.5"
   y="20"
   id="tspan23">Capture</tspan></text>
    <path
       d="M 481,188.667 C 481,182.776 485.776,178 491.667,178 h 114.666 c 5.891,0 10.667,4.776 10.667,10.667 v 42.666 C 617,237.224 612.224,242 606.333,242 H 491.667 C 485.776,242 481,237.224 481,231.333 Z"
       stroke="#033f87"
       stroke-width="2"
       stroke-miterlimit="8"
       fill="#045bc4"
       fill-rule="evenodd"
       id="path27" />
    <text
       fill="#ffffff"
       font-family="Corbel, Corbel_MSFontService, sans-serif"
       font-weight="700"
       font-size="19px"
       transform="translate(520.07,204)"
       id="text31">Energy <tspan
   font-size="19px"
   x="-34.419998"
   y="20"
   id="tspan29">Transformation</tspan></text>
    <path
       d="M 637,188.667 C 637,182.776 641.776,178 647.667,178 h 61.666 c 5.891,0 10.667,4.776 10.667,10.667 v 42.666 C 720,237.224 715.224,242 709.333,242 H 647.667 C 641.776,242 637,237.224 637,231.333 Z"
       stroke="#033f87"
       stroke-width="2"
       stroke-miterlimit="8"
       fill="#045bc4"
       fill-rule="evenodd"
       id="path33" />
    <text
       fill="#ffffff"
       font-family="Corbel, Corbel_MSFontService, sans-serif"
       font-weight="700"
       font-size="19px"
       transform="translate(649.682,205)"
       id="text37">Energy <tspan
   font-size="19px"
   x="-4.7466998"
   y="20"
   id="tspan35">Delivery</tspan></text>
    <path
       d="M 739,188.667 C 739,182.776 743.776,178 749.667,178 h 61.666 c 5.891,0 10.667,4.776 10.667,10.667 v 42.666 C 822,237.224 817.224,242 811.333,242 H 749.667 C 743.776,242 739,237.224 739,231.333 Z"
       stroke="#033f87"
       stroke-width="2"
       stroke-miterlimit="8"
       fill="#045bc4"
       fill-rule="evenodd"
       id="path39" />
    <text
       fill="#ffffff"
       font-family="Corbel, Corbel_MSFontService, sans-serif"
       font-weight="700"
       font-size="19px"
       transform="translate(750.659,204)"
       id="text43">Station <tspan
   font-size="19px"
   x="-3.3333099"
   y="20"
   id="tspan41">Keeping</tspan></text>
    <path
       d="M 843,188.667 C 843,182.776 847.776,178 853.667,178 h 84.666 c 5.891,0 10.667,4.776 10.667,10.667 v 42.666 C 949,237.224 944.224,242 938.333,242 H 853.667 C 847.776,242 843,237.224 843,231.333 Z"
       stroke="#033f87"
       stroke-width="2"
       stroke-miterlimit="8"
       fill="#045bc4"
       fill-rule="evenodd"
       id="path45" />
    <text
       fill="#ffffff"
       font-family="Corbel, Corbel_MSFontService, sans-serif"
       font-weight="700"
       font-size="19px"
       transform="translate(860.431,194)"
       id="text51">Logistics <tspan
   font-size="19px"
   x="-1"
   y="20"
   id="tspan47">&amp; Marine</tspan><tspan
   font-size="19px"
   x="-9.5"
   y="41"
   id="tspan49">Operations</tspan></text>
    <path
       d="m 0,-1.5 h 18.5079 v 37.8374 l -1.5,-1.5 h 9.5078 v 3 H 15.5079 V 0 l 1.5,1.5 H 0 Z m 25.0157,33.3374 9,4.5 -9,4.5 z"
       fill="#022c5f"
       transform="matrix(1,0,0,-1,343.5,246.837)"
       id="path53" />
    <path
       d="m 344.5,178 h 17.993 v 32.178 l -1.5,-1.5 h 8.992 v 3 H 359.493 V 179.5 l 1.5,1.5 H 344.5 Z m 23.985,27.678 9,4.5 -9,4.5 z"
       fill="#022c5f"
       id="path55" />
    <path
       d="m 461.5,209 h 12.512 v 3 H 461.5 Z m 11.012,-3 9,4.5 -9,4.5 z"
       fill="#022c5f"
       id="path57" />
    <path
       d="m 617.509,209 12.513,0.078 -0.019,3 L 617.491,212 Z m 11.031,-2.931 8.972,4.556 -9.028,4.443 z"
       fill="#022c5f"
       id="path59" />
    <path
       d="M 0.00970679,-1.49997 11.7508,-1.42399 11.7314,1.57595 -0.00970679,1.49997 Z M 10.2703,-4.43363 19.2409,0.124514 10.212,4.56618 Z"
       fill="#022c5f"
       transform="matrix(1,0,0,-1,720.5,210.625)"
       id="path61" />
    <path
       d="M 0.00234893,-1.5 13.2858,-1.4792 l -0.0047,3 L -0.00234893,1.5 Z M 11.7905,-4.48154 20.7834,0.0325459 11.7764,4.51845 Z"
       fill="#022c5f"
       transform="matrix(1,0,0,-1,822.5,210.533)"
       id="path63" />
    <path
       d="M 637,295.667 C 637,289.776 641.776,285 647.667,285 h 61.666 c 5.891,0 10.667,4.776 10.667,10.667 v 42.666 C 720,344.224 715.224,349 709.333,349 H 647.667 C 641.776,349 637,344.224 637,338.333 Z"
       stroke="#045bc4"
       stroke-width="2"
       stroke-miterlimit="8"
       fill="#ffffff"
       fill-rule="evenodd"
       id="path65" />
    <text
       fill="#045bc4"
       font-family="Corbel, Corbel_MSFontService, sans-serif"
       font-weight="700"
       font-size="19px"
       transform="translate(649.682,312)"
       id="text69">Energy <tspan
   font-size="19px"
   x="-4.7466998"
   y="20"
   id="tspan67">Delivery</tspan></text>
    <path
       d="M 739,295.667 C 739,289.776 743.776,285 749.667,285 h 61.666 c 5.891,0 10.667,4.776 10.667,10.667 v 42.666 C 822,344.224 817.224,349 811.333,349 H 749.667 C 743.776,349 739,344.224 739,338.333 Z"
       stroke="#045bc4"
       stroke-width="2"
       stroke-miterlimit="8"
       fill="#ffffff"
       fill-rule="evenodd"
       id="path71" />
    <text
       fill="#045bc4"
       font-family="Corbel, Corbel_MSFontService, sans-serif"
       font-weight="700"
       font-size="19px"
       transform="translate(750.659,312)"
       id="text75">Station <tspan
   font-size="19px"
   x="-3.3333099"
   y="20"
   id="tspan73">Keeping</tspan></text>
    <path
       d="M 843,295.667 C 843,289.776 847.776,285 853.667,285 h 84.666 c 5.891,0 10.667,4.776 10.667,10.667 v 42.666 C 949,344.224 944.224,349 938.333,349 H 853.667 C 847.776,349 843,344.224 843,338.333 Z"
       stroke="#045bc4"
       stroke-width="2"
       stroke-miterlimit="8"
       fill="#ffffff"
       fill-rule="evenodd"
       id="path77" />
    <text
       fill="#045bc4"
       font-family="Corbel, Corbel_MSFontService, sans-serif"
       font-weight="700"
       font-size="19px"
       transform="translate(860.431,302)"
       id="text83">Logistics <tspan
   font-size="19px"
   x="-1"
   y="20"
   id="tspan79">&amp; Marine</tspan><tspan
   font-size="19px"
   x="-9.5"
   y="41"
   id="tspan81">Operations</tspan></text>
    <path
       d="M 0.00970679,-1.49997 11.7508,-1.42399 11.7314,1.57595 -0.00970679,1.49997 Z M 10.2703,-4.43363 19.2409,0.124514 10.212,4.56618 Z"
       fill="#022c5f"
       transform="matrix(1,0,0,-1,720.5,317.625)"
       id="path85" />
    <path
       d="M 0.00234893,-1.5 13.2858,-1.4792 l -0.0047,3 L -0.00234893,1.5 Z M 11.7905,-4.48154 20.7834,0.0325459 11.7764,4.51845 Z"
       fill="#022c5f"
       transform="matrix(1,0,0,-1,822.5,317.533)"
       id="path87" />
    <path
       d="m 0,-3 h 78.2418 v 76.0437 h -6 V 0 l 3,3 H 0 Z m 84.2418,73.0437 -9,18 -9,-18 z"
       fill="#ffc000"
       transform="matrix(0,1,1,0,549,242)"
       id="path89"
       style="fill:#e6a23c;fill-opacity:1" />
    <text
       fill="#045bc4"
       font-family="Corbel, Corbel_MSFontService, sans-serif"
       font-weight="400"
       font-size="21px"
       id="text91"
       style="fill:#8a590f;fill-opacity:1"
       x="201.541"
       y="322">Fork study after energy transformation</text>
    <path
       d="M 983,188.667 C 983,182.776 987.776,178 993.667,178 h 84.663 c 5.89,0 10.67,4.776 10.67,10.667 v 42.666 c 0,5.891 -4.78,10.667 -10.67,10.667 H 993.667 C 987.776,242 983,237.224 983,231.333 Z"
       stroke="#00b5ea"
       stroke-width="2"
       stroke-miterlimit="8"
       fill="#58c4f0"
       fill-rule="evenodd"
       id="path93" />
    <text
       fill="#022c5f"
       font-family="Corbel, Corbel_MSFontService, sans-serif"
       font-weight="700"
       font-size="19px"
       transform="translate(988.005,204)"
       id="text97">Assessment <tspan
   font-size="19px"
   x="27.8333"
   y="20"
   id="tspan95">tools</tspan></text>
    <path
       d="m 949.5,209 h 26.747 v 3 H 949.5 Z m 25.247,-3 9,4.5 -9,4.5 z"
       fill="#022c5f"
       id="path99" />
    <path
       d="M 983,295.667 C 983,289.776 987.776,285 993.667,285 h 84.663 c 5.89,0 10.67,4.776 10.67,10.667 v 42.666 c 0,5.891 -4.78,10.667 -10.67,10.667 H 993.667 C 987.776,349 983,344.224 983,338.333 Z"
       stroke="#31b4da"
       stroke-width="2"
       stroke-miterlimit="8"
       fill="none"
       fill-rule="evenodd"
       id="path101" />
    <text
       fill="#1e8aaa"
       font-family="Corbel, Corbel_MSFontService, sans-serif"
       font-weight="700"
       font-size="19px"
       transform="translate(988.005,312)"
       id="text105">Assessment <tspan
   font-size="19px"
   x="27.8333"
   y="20"
   id="tspan103">tools</tspan></text>
    <path
       d="m 949.5,316 h 26.747 v 3 H 949.5 Z m 25.247,-3 9,4.5 -9,4.5 z"
       fill="#022c5f"
       id="path107" />
  </g>
</svg>
